{
    "volume": 0,
    "combat_speed": 0.5,
<<<<<<< HEAD
<<<<<<< HEAD
<<<<<<< HEAD
<<<<<<< HEAD
=======
>>>>>>> 3d2b94da6ba1c19f106d02d74cda7079a7a6ad46
    "monster_spawn_limit": 5,
    "alive_monster": [
        {
            "name": "Goblin",
            "hp": 26,
            "pos": [
                550,
                400
<<<<<<< HEAD
=======
    "monster_spawn_limit": 4,
=======
    "monster_spawn_limit": 7,
>>>>>>> eae1203 (Fixed Battle health display bug. Fixed Monster Respawn bug)
    "alive_monster": [
        {
            "name": "Goblin",
            "hp": 26,
            "pos": [
<<<<<<< HEAD
                650,
                100
>>>>>>> 9a95f74 (Succesfully implemented Save system)
=======
                200,
                475
>>>>>>> eae1203 (Fixed Battle health display bug. Fixed Monster Respawn bug)
            ],
            "movement": 25
        },
        {
<<<<<<< HEAD
<<<<<<< HEAD
            "name": "Goblin",
            "hp": 34,
            "pos": [
                225,
=======
            "name": "Terranite",
            "maxhp": 100,
            "hp": 34,
            "pos": [
                425,
>>>>>>> 9a95f74 (Succesfully implemented Save system)
                375
=======
            "name": "Goblin",
            "hp": 24,
            "pos": [
                250,
                475
>>>>>>> eae1203 (Fixed Battle health display bug. Fixed Monster Respawn bug)
            ],
            "movement": 25
        },
        {
<<<<<<< HEAD
<<<<<<< HEAD
            "name": "Terranite",
            "hp": 33,
            "pos": [
                325,
                450
=======
            "name": "Goblin",
            "maxhp": 100,
            "hp": 26,
            "pos": [
                775,
                475
>>>>>>> 9a95f74 (Succesfully implemented Save system)
=======
            "name": "Terranite",
            "hp": 28,
            "pos": [
                675,
                150
>>>>>>> eae1203 (Fixed Battle health display bug. Fixed Monster Respawn bug)
            ],
            "movement": 25
        },
        {
            "name": "Terranite",
<<<<<<< HEAD
<<<<<<< HEAD
            "hp": 34,
            "pos": [
                750,
                450
            ],
            "movement": 25
        },
        {
            "name": "Orc",
            "hp": 28,
            "pos": [
                525,
                100
=======
            "maxhp": 100,
            "hp": 28,
=======
            "hp": 25,
>>>>>>> eae1203 (Fixed Battle health display bug. Fixed Monster Respawn bug)
            "pos": [
                575,
=======
    "monster_spawn_limit": 5,
    "alive_monster": [
        {
            "name": "Goblin",
            "hp": 26,
            "pos": [
<<<<<<< HEAD
<<<<<<< HEAD
                750,
>>>>>>> 7df14e2 (Fixed werid Monster Spawn. Removed debug statement causing bug)
                125
=======
                525,
                350
>>>>>>> ab4775e (Added functionality to respawn when dead.)
            ],
            "movement": 25
        },
        {
<<<<<<< HEAD
            "name": "Orc",
<<<<<<< HEAD
            "hp": 27,
            "pos": [
                500,
                350
>>>>>>> 9a95f74 (Succesfully implemented Save system)
            ],
            "movement": 25
        },
        {
            "name": "Orc",
            "hp": 31,
            "pos": [
                625,
                175
=======
                550,
                400
>>>>>>> 3d2b94d (Removed all inital test statements that introduced bugs. Also added load monster function. Squashed more bugs)
=======
>>>>>>> 3d2b94da6ba1c19f106d02d74cda7079a7a6ad46
            ],
            "movement": 25
        },
        {
<<<<<<< HEAD
<<<<<<< HEAD
            "name": "Orc",
            "hp": 23,
=======
            "hp": 26,
>>>>>>> 7df14e2 (Fixed werid Monster Spawn. Removed debug statement causing bug)
=======
            "name": "Terranite",
            "hp": 30,
>>>>>>> ab4775e (Added functionality to respawn when dead.)
=======
            "name": "Goblin",
            "hp": 34,
>>>>>>> 3d2b94d (Removed all inital test statements that introduced bugs. Also added load monster function. Squashed more bugs)
=======
            "name": "Goblin",
            "hp": 34,
>>>>>>> 3d2b94da6ba1c19f106d02d74cda7079a7a6ad46
            "pos": [
                225,
                375
            ],
            "movement": 25
        },
        {
            "name": "Terranite",
            "hp": 33,
            "pos": [
                325,
                450
            ],
            "movement": 25
        },
        {
            "name": "Terranite",
            "hp": 34,
            "pos": [
                750,
                450
            ],
            "movement": 25
        },
        {
            "name": "Orc",
            "hp": 28,
            "pos": [
                525,
                100
            ],
            "movement": 25
        }
    ]
}