{
    "name": "Steve",
    "maxhp": 100,
<<<<<<< HEAD
<<<<<<< HEAD
<<<<<<< HEAD
<<<<<<< HEAD
<<<<<<< HEAD
<<<<<<< HEAD
    "hp": 47,
    "pos": [
        475,
        350
    ],
    "movement": 25,
    "status": "alive"
=======
    "hp": 95,
=======
    "hp": 69,
>>>>>>> eae1203 (Fixed Battle health display bug. Fixed Monster Respawn bug)
=======
    "hp": 0,
>>>>>>> 7df14e2 (Fixed werid Monster Spawn. Removed debug statement causing bug)
=======
    "hp": 94,
>>>>>>> ab4775e (Added functionality to respawn when dead.)
=======
    "hp": 47,
>>>>>>> 3d2b94d (Removed all inital test statements that introduced bugs. Also added load monster function. Squashed more bugs)
    "pos": [
        675,
        350
    ],
<<<<<<< HEAD
    "movement": 25
>>>>>>> 9a95f74 (Succesfully implemented Save system)
=======
    "movement": 25,
    "status": "alive"
>>>>>>> ab4775e (Added functionality to respawn when dead.)
=======
    "hp": 47,
    "pos": [
        675,
        350
    ],
    "movement": 25,
    "status": "alive"
>>>>>>> 3d2b94da6ba1c19f106d02d74cda7079a7a6ad46
}